Exploring the BRFSS data
…
Part 3: Exploratory data analysis

Research quesion 1:

1. What state shows the best general health condition?

BestHealthState <- brfss2013 %>% 
  select(X_state, poorhlth) %>% 
  filter(X_state != '0' & X_state != '80') %>%
  group_by(X_state, poorhlth) %>%
  summarise(n = n()) 

BestHealthState         

## # A tibble: 1,556 x 3
## # Groups:   X_state [53]
##    X_state poorhlth     n
##    <fct>      <int> <int>
##  1 Alabama        0  1855
##  2 Alabama        1   132
##  3 Alabama        2   156
##  4 Alabama        3   113
##  5 Alabama        4    75
##  6 Alabama        5   124
##  7 Alabama        6    22
##  8 Alabama        7    74
##  9 Alabama        8    13
## 10 Alabama        9     5
## # ... with 1,546 more rows
…
Approximatly 60 percent of Guam respondent do not smoke

Research quesion 2:

2-1. How frequently respondent exercise?

GenExFre <- brfss2013 %>%
  select(X_state, exerany2) %>%
  filter(!is.na(exerany2)) %>%
  group_by(X_state, exerany2) %>%
  summarise(n = n())

GenExFre

## # A tibble: 106 x 3
## # Groups:   X_state [53]
##    X_state    exerany2     n
##    <fct>      <fct>    <int>
##  1 Alabama    Yes       4087
##  2 Alabama    No        2077
##  3 Alaska     Yes       3294
##  4 Alaska     No         981
##  5 Arizona    Yes       2863
##  6 Arizona    No        1048
##  7 Arkansas   Yes       3094
##  8 Arkansas   No        1777
##  9 California Yes       8091
## 10 California No        2099
## # ... with 96 more rows
…
2-4. How long smokers excersice?

hourBreaks <- c(0:24)
GenSmoExHours <- brfss2013 %>%
  select(smoke100, exerhmm1) %>%
  na.omit() %>%
  #filter(smoke100 != 'No') %>%
  mutate(exerhmm1 = exerhmm1 / 60) %>% 
  mutate(Hours = cut(exerhmm1, breaks=hourBreaks, labels=FALSE)) %>% 
  group_by(Hours, smoke100) %>%
  summarise(n = n())

GenSmoExHours

## # A tibble: 32 x 3
## # Groups:   Hours [16]
##    Hours smoke100      n
##    <int> <fct>     <int>
##  1     1 Yes       76759
##  2     1 No       107749
##  3     2 Yes       30387
##  4     2 No        43759
##  5     3 Yes        6259
##  6     3 No         8650
##  7     4 Yes       11258
##  8     4 No        13367
##  9     5 Yes        4488
## 10     5 No         4609
## # ... with 22 more rows
…
2-6. For those who smokers in Guam how long do they excercies?

hourBreaks <- c(0:24)
GuamSmoExHoures <- brfss2013 %>%
  select(X_state, smoke100, exerhmm1) %>% 
  filter(X_state %in% 'Guam') %>%
  na.omit() %>%
  mutate(exerhmm1 = exerhmm1 / 60) %>% 
  mutate(Hours = cut(exerhmm1, breaks=hourBreaks, labels=FALSE)) %>% 
  group_by(smoke100, Hours) %>%
  summarise(n = n())

GuamSmoExHoures

## # A tibble: 22 x 3
## # Groups:   smoke100 [2]
##    smoke100 Hours     n
##    <fct>    <int> <int>
##  1 Yes          1   220
##  2 Yes          2   121
##  3 Yes          3    33
##  4 Yes          4    63
##  5 Yes          5    13
##  6 Yes          6     1
##  7 Yes          7    16
##  8 Yes          8     1
##  9 Yes          9     8
## 10 Yes         10     3
## # ... with 12 more rows
…
